Work Sample
…
Each device has 0 or 1 failure, and if has a failure it’s the last row

n.fails.index <- which(data.raw$failure==1) #only 106 failures 
nn.fails <- data.raw[ rep(n.fails.index, each=9) + -4:4, ]
head(nn.fails, 50 )

## # A tibble: 50 x 21
## # Groups:   device [11]
##    date       device failure attribute1 attribute2 attribute3 attribute4
##    <date>     <chr>    <int>      <int>      <int>      <int>      <int>
##  1 2015-01-15 S1F02~       0  222474632          0          0          1
##  2 2015-01-16 S1F02~       0  243825496          0          0          1
##  3 2015-01-17 S1F02~       0   20761856          0          0          1
##  4 2015-01-18 S1F02~       0   41291000          0          0          1
##  5 2015-01-19 S1F02~       1   64499464          0          0          1
##  6 2015-01-02 S1F02~       0   63705712          0          1          0
##  7 2015-01-03 S1F02~       0   53868456          0          1          0
##  8 2015-01-04 S1F02~       0    4263992          0          1          0
##  9 2015-01-05 S1F02~       0   37773128          0          1          0
## 10 2015-07-30 S1F03~       0    3869656        232          0          0
## # ... with 40 more rows, and 14 more variables: attribute5 <int>,
## #   attribute6 <int>, attribute7 <int>, attribute8 <int>, attribute9 <int>,
## #   l.attribute1 <int>, l.attribute2 <int>, l.attribute3 <int>,
## #   l.attribute4 <int>, l.attribute5 <int>, l.attribute6 <int>,
## #   l.attribute7 <int>, l.attribute8 <int>, l.attribute9 <int>
…
